{
  "dependencies": {
    "com.microsoft.azure.object-anchors.runtime": {
      "version": "file:MixedReality/com.microsoft.azure.object-anchors.runtime-0.20.0.tgz",
      "depth": 0,
      "source": "local-tarball",
      "dependencies": {}
    },
    "com.microsoft.azure.spatial-anchors-sdk.android": {
      "version": "file:MixedReality/com.microsoft.azure.spatial-anchors-sdk.android-2.12.0.tgz",
      "depth": 0,
      "source": "local-tarball",
      "dependencies": {
        "com.unity.xr.arcore": "4.0.12",
        "com.microsoft.azure.spatial-anchors-sdk.core": "2.12.0"
      }
    },
    "com.microsoft.azure.spatial-anchors-sdk.core": {
      "version": "file:MixedReality/com.microsoft.azure.spatial-anchors-sdk.core-2.12.0.tgz",
      "depth": 0,
      "source": "local-tarball",
      "dependencies": {
        "com.unity.subsystemregistration": "1.0.6",
        "com.unity.xr.arsubsystems": "4.0.8",
        "com.unity.xr.arfoundation": "4.0.12"
      }
    },
    "com.microsoft.azure.spatial-anchors-sdk.windows": {
      "version": "file:MixedReality/com.microsoft.azure.spatial-anchors-sdk.windows-2.12.0.tgz",
      "depth": 0,
      "source": "local-tarball",
      "dependencies": {
        "com.microsoft.azure.spatial-anchors-sdk.core": "2.12.0"
      }
    },
    "com.microsoft.mixedreality.openxr": {
      "version": "1.6.0",
      "depth": 0,
      "source": "registry",
      "dependencies": {
        "com.unity.xr.arfoundation": "4.1.7",
        "com.unity.xr.management": "4.2.0",
        "com.unity.xr.openxr": "1.5.3",
        "com.unity.xr.core-utils": "2.1.0"
      },
      "url": "https://pkgs.dev.azure.com/aipmr/MixedReality-Unity-Packages/_packaging/Unity-packages/npm/registry"
    },
    "com.microsoft.mixedreality.toolkit.examples": {
      "version": "2.8.2",
      "depth": 0,
      "source": "registry",
      "dependencies": {
        "com.microsoft.mixedreality.toolkit.foundation": "2.8.2",
        "com.microsoft.mixedreality.toolkit.extensions": "2.8.2"
      },
      "url": "https://pkgs.dev.azure.com/aipmr/MixedReality-Unity-Packages/_packaging/Unity-packages/npm/registry"
    },
    "com.microsoft.mixedreality.toolkit.extensions": {
      "version": "2.8.2",
      "depth": 0,
      "source": "registry",
      "dependencies": {
        "com.microsoft.mixedreality.toolkit.foundation": "2.8.2"
      },
      "url": "https://pkgs.dev.azure.com/aipmr/MixedReality-Unity-Packages/_packaging/Unity-packages/npm/registry"
    },
    "com.microsoft.mixedreality.toolkit.foundation": {
      "version": "2.8.2",
      "depth": 0,
      "source": "registry",
      "dependencies": {
        "com.microsoft.mixedreality.toolkit.standardassets": "2.8.2"
      },
      "url": "https://pkgs.dev.azure.com/aipmr/MixedReality-Unity-Packages/_packaging/Unity-packages/npm/registry"
    },
    "com.microsoft.mixedreality.toolkit.standardassets": {
      "version": "2.8.2",
      "depth": 0,
      "source": "registry",
      "dependencies": {
        "com.unity.textmeshpro": "2.1.4"
      },
      "url": "https://pkgs.dev.azure.com/aipmr/MixedReality-Unity-Packages/_packaging/Unity-packages/npm/registry"
    },
    "com.microsoft.mixedreality.toolkit.tools": {
      "version": "2.8.2",
      "depth": 0,
      "source": "registry",
      "dependencies": {
        "com.microsoft.mixedreality.toolkit.foundation": "2.8.2"
      },
      "url": "https://pkgs.dev.azure.com/aipmr/MixedReality-Unity-Packages/_packaging/Unity-packages/npm/registry"
    },
    "com.unity.collab-proxy": {
      "version": "1.15.17",
      "depth": 0,
      "source": "registry",
      "dependencies": {
        "com.unity.services.core": "1.0.1"
      },
      "url": "https://packages.unity.com"
    },
    "com.unity.ext.nunit": {
      "version": "1.0.6",
      "depth": 1,
      "source": "registry",
      "dependencies": {},
      "url": "https://packages.unity.com"
    },
    "com.unity.ide.rider": {
      "version": "3.0.14",
      "depth": 0,
      "source": "registry",
      "dependencies": {
        "com.unity.ext.nunit": "1.0.6"
      },
      "url": "https://packages.unity.com"
    },
    "com.unity.ide.visualstudio": {
      "version": "2.0.15",
      "depth": 0,
      "source": "registry",
      "dependencies": {
        "com.unity.test-framework": "1.1.9"
      },
      "url": "https://packages.unity.com"
    },
    "com.unity.ide.vscode": {
      "version": "1.2.5",
      "depth": 0,
      "source": "registry",
      "dependencies": {},
      "url": "https://packages.unity.com"
    },
    "com.unity.inputsystem": {
      "version": "1.4.2",
      "depth": 2,
      "source": "registry",
      "dependencies": {
        "com.unity.modules.uielements": "1.0.0"
      },
      "url": "https://packages.unity.com"
    },
    "com.unity.nuget.newtonsoft-json": {
      "version": "3.0.2",
      "depth": 2,
      "source": "registry",
      "dependencies": {},
      "url": "https://packages.unity.com"
    },
    "com.unity.services.core": {
      "version": "1.4.0",
      "depth": 1,
      "source": "registry",
      "dependencies": {
        "com.unity.modules.unitywebrequest": "1.0.0",
        "com.unity.nuget.newtonsoft-json": "3.0.2",
        "com.unity.modules.androidjni": "1.0.0"
      },
      "url": "https://packages.unity.com"
    },
    "com.unity.subsystemregistration": {
      "version": "1.1.0",
      "depth": 1,
      "source": "registry",
      "dependencies": {
        "com.unity.modules.subsystems": "1.0.0"
      },
      "url": "https://packages.unity.com"
    },
    "com.unity.sysroot": {
      "version": "2.0.3",
      "depth": 1,
      "source": "registry",
      "dependencies": {},
      "url": "https://packages.unity.com"
    },
    "com.unity.sysroot.linux-x86_64": {
      "version": "2.0.2",
      "depth": 1,
      "source": "registry",
      "dependencies": {
        "com.unity.sysroot": "2.0.3"
      },
      "url": "https://packages.unity.com"
    },
    "com.unity.test-framework": {
      "version": "1.1.31",
      "depth": 0,
      "source": "registry",
      "dependencies": {
        "com.unity.ext.nunit": "1.0.6",
        "com.unity.modules.imgui": "1.0.0",
        "com.unity.modules.jsonserialize": "1.0.0"
      },
      "url": "https://packages.unity.com"
    },
    "com.unity.textmeshpro": {
      "version": "3.0.6",
      "depth": 0,
      "source": "registry",
      "dependencies": {
        "com.unity.ugui": "1.0.0"
      },
      "url": "https://packages.unity.com"
    },
    "com.unity.timeline": {
      "version": "1.6.4",
      "depth": 0,
      "source": "registry",
      "dependencies": {
        "com.unity.modules.director": "1.0.0",
        "com.unity.modules.animation": "1.0.0",
        "com.unity.modules.audio": "1.0.0",
        "com.unity.modules.particlesystem": "1.0.0"
      },
      "url": "https://packages.unity.com"
    },
    "com.unity.toolchain.win-x86_64-linux-x86_64": {
      "version": "2.0.2",
      "depth": 0,
      "source": "registry",
      "dependencies": {
        "com.unity.sysroot": "2.0.3",
        "com.unity.sysroot.linux-x86_64": "2.0.2"
      },
      "url": "https://packages.unity.com"
    },
    "com.unity.ugui": {
      "version": "1.0.0",
      "depth": 0,
      "source": "builtin",
      "dependencies": {
        "com.unity.modules.ui": "1.0.0",
        "com.unity.modules.imgui": "1.0.0"
      }
    },
    "com.unity.xr.arcore": {
      "version": "4.2.3",
      "depth": 1,
      "source": "registry",
      "dependencies": {
        "com.unity.xr.arsubsystems": "4.2.3",
        "com.unity.xr.management": "4.0.1",
        "com.unity.modules.androidjni": "1.0.0",
        "com.unity.modules.unitywebrequest": "1.0.0"
      },
      "url": "https://packages.unity.com"
    },
    "com.unity.xr.arfoundation": {
      "version": "4.2.3",
      "depth": 1,
      "source": "registry",
      "dependencies": {
        "com.unity.xr.arsubsystems": "4.2.3",
        "com.unity.xr.management": "4.0.1",
        "com.unity.modules.particlesystem": "1.0.0"
      },
      "url": "https://packages.unity.com"
    },
    "com.unity.xr.arsubsystems": {
      "version": "4.2.3",
      "depth": 1,
      "source": "registry",
      "dependencies": {
        "com.unity.subsystemregistration": "1.1.0",
        "com.unity.xr.management": "4.0.1"
      },
      "url": "https://packages.unity.com"
    },
    "com.unity.xr.core-utils": {
      "version": "2.1.0",
      "depth": 1,
      "source": "registry",
      "dependencies": {
        "com.unity.modules.xr": "1.0.0"
      },
      "url": "https://packages.unity.com"
    },
    "com.unity.xr.legacyinputhelpers": {
      "version": "2.1.9",
      "depth": 1,
      "source": "registry",
      "dependencies": {
        "com.unity.modules.vr": "1.0.0",
        "com.unity.modules.xr": "1.0.0"
      },
      "url": "https://packages.unity.com"
    },
    "com.unity.xr.management": {
      "version": "4.2.0",
      "depth": 0,
      "source": "registry",
      "dependencies": {
        "com.unity.modules.subsystems": "1.0.0",
        "com.unity.modules.vr": "1.0.0",
        "com.unity.modules.xr": "1.0.0",
        "com.unity.xr.legacyinputhelpers": "2.1.7",
        "com.unity.subsystemregistration": "1.0.6"
      },
      "url": "https://packages.unity.com"
    },
    "com.unity.xr.openxr": {
      "version": "1.5.3",
      "depth": 1,
      "source": "registry",
      "dependencies": {
        "com.unity.xr.management": "4.0.1",
        "com.unity.xr.legacyinputhelpers": "2.1.2",
        "com.unity.inputsystem": "1.4.2"
      },
      "url": "https://packages.unity.com"
    },
    "com.unity.modules.ai": {
      "version": "1.0.0",
      "depth": 0,
      "source": "builtin",
      "dependencies": {}
    },
    "com.unity.modules.androidjni": {
      "version": "1.0.0",
      "depth": 0,
      "source": "builtin",
      "dependencies": {}
    },
    "com.unity.modules.animation": {
      "version": "1.0.0",
      "depth": 0,
      "source": "builtin",
      "dependencies": {}
    },
    "com.unity.modules.assetbundle": {
      "version": "1.0.0",
      "depth": 0,
      "source": "builtin",
      "dependencies": {}
    },
    "com.unity.modules.audio": {
      "version": "1.0.0",
      "depth": 0,
      "source": "builtin",
      "dependencies": {}
    },
    "com.unity.modules.cloth": {
      "version": "1.0.0",
      "depth": 0,
      "source": "builtin",
      "dependencies": {
        "com.unity.modules.physics": "1.0.0"
      }
    },
    "com.unity.modules.director": {
      "version": "1.0.0",
      "depth": 0,
      "source": "builtin",
      "dependencies": {
        "com.unity.modules.audio": "1.0.0",
        "com.unity.modules.animation": "1.0.0"
      }
    },
    "com.unity.modules.imageconversion": {
      "version": "1.0.0",
      "depth": 0,
      "source": "builtin",
      "dependencies": {}
    },
    "com.unity.modules.imgui": {
      "version": "1.0.0",
      "depth": 0,
      "source": "builtin",
      "dependencies": {}
    },
    "com.unity.modules.jsonserialize": {
      "version": "1.0.0",
      "depth": 0,
      "source": "builtin",
      "dependencies": {}
    },
    "com.unity.modules.particlesystem": {
      "version": "1.0.0",
      "depth": 0,
      "source": "builtin",
      "dependencies": {}
    },
    "com.unity.modules.physics": {
      "version": "1.0.0",
      "depth": 0,
      "source": "builtin",
      "dependencies": {}
    },
    "com.unity.modules.physics2d": {
      "version": "1.0.0",
      "depth": 0,
      "source": "builtin",
      "dependencies": {}
    },
    "com.unity.modules.screencapture": {
      "version": "1.0.0",
      "depth": 0,
      "source": "builtin",
      "dependencies": {
        "com.unity.modules.imageconversion": "1.0.0"
      }
    },
    "com.unity.modules.subsystems": {
      "version": "1.0.0",
      "depth": 1,
      "source": "builtin",
      "dependencies": {
        "com.unity.modules.jsonserialize": "1.0.0"
      }
    },
    "com.unity.modules.terrain": {
      "version": "1.0.0",
      "depth": 0,
      "source": "builtin",
      "dependencies": {}
    },
    "com.unity.modules.terrainphysics": {
      "version": "1.0.0",
      "depth": 0,
      "source": "builtin",
      "dependencies": {
        "com.unity.modules.physics": "1.0.0",
        "com.unity.modules.terrain": "1.0.0"
      }
    },
    "com.unity.modules.tilemap": {
      "version": "1.0.0",
      "depth": 0,
      "source": "builtin",
      "dependencies": {
        "com.unity.modules.physics2d": "1.0.0"
      }
    },
    "com.unity.modules.ui": {
      "version": "1.0.0",
      "depth": 0,
      "source": "builtin",
      "dependencies": {}
    },
    "com.unity.modules.uielements": {
      "version": "1.0.0",
      "depth": 0,
      "source": "builtin",
      "dependencies": {
        "com.unity.modules.ui": "1.0.0",
        "com.unity.modules.imgui": "1.0.0",
        "com.unity.modules.jsonserialize": "1.0.0",
        "com.unity.modules.uielementsnative": "1.0.0"
      }
    },
    "com.unity.modules.uielementsnative": {
      "version": "1.0.0",
      "depth": 1,
      "source": "builtin",
      "dependencies": {
        "com.unity.modules.ui": "1.0.0",
        "com.unity.modules.imgui": "1.0.0",
        "com.unity.modules.jsonserialize": "1.0.0"
      }
    },
    "com.unity.modules.umbra": {
      "version": "1.0.0",
      "depth": 0,
      "source": "builtin",
      "dependencies": {}
    },
    "com.unity.modules.unityanalytics": {
      "version": "1.0.0",
      "depth": 0,
      "source": "builtin",
      "dependencies": {
        "com.unity.modules.unitywebrequest": "1.0.0",
        "com.unity.modules.jsonserialize": "1.0.0"
      }
    },
    "com.unity.modules.unitywebrequest": {
      "version": "1.0.0",
      "depth": 0,
      "source": "builtin",
      "dependencies": {}
    },
    "com.unity.modules.unitywebrequestassetbundle": {
      "version": "1.0.0",
      "depth": 0,
      "source": "builtin",
      "dependencies": {
        "com.unity.modules.assetbundle": "1.0.0",
        "com.unity.modules.unitywebrequest": "1.0.0"
      }
    },
    "com.unity.modules.unitywebrequestaudio": {
      "version": "1.0.0",
      "depth": 0,
      "source": "builtin",
      "dependencies": {
        "com.unity.modules.unitywebrequest": "1.0.0",
        "com.unity.modules.audio": "1.0.0"
      }
    },
    "com.unity.modules.unitywebrequesttexture": {
      "version": "1.0.0",
      "depth": 0,
      "source": "builtin",
      "dependencies": {
        "com.unity.modules.unitywebrequest": "1.0.0",
        "com.unity.modules.imageconversion": "1.0.0"
      }
    },
    "com.unity.modules.unitywebrequestwww": {
      "version": "1.0.0",
      "depth": 0,
      "source": "builtin",
      "dependencies": {
        "com.unity.modules.unitywebrequest": "1.0.0",
        "com.unity.modules.unitywebrequestassetbundle": "1.0.0",
        "com.unity.modules.unitywebrequestaudio": "1.0.0",
        "com.unity.modules.audio": "1.0.0",
        "com.unity.modules.assetbundle": "1.0.0",
        "com.unity.modules.imageconversion": "1.0.0"
      }
    },
    "com.unity.modules.vehicles": {
      "version": "1.0.0",
      "depth": 0,
      "source": "builtin",
      "dependencies": {
        "com.unity.modules.physics": "1.0.0"
      }
    },
    "com.unity.modules.video": {
      "version": "1.0.0",
      "depth": 0,
      "source": "builtin",
      "dependencies": {
        "com.unity.modules.audio": "1.0.0",
        "com.unity.modules.ui": "1.0.0",
        "com.unity.modules.unitywebrequest": "1.0.0"
      }
    },
    "com.unity.modules.vr": {
      "version": "1.0.0",
      "depth": 0,
      "source": "builtin",
      "dependencies": {
        "com.unity.modules.jsonserialize": "1.0.0",
        "com.unity.modules.physics": "1.0.0",
        "com.unity.modules.xr": "1.0.0"
      }
    },
    "com.unity.modules.wind": {
      "version": "1.0.0",
      "depth": 0,
      "source": "builtin",
      "dependencies": {}
    },
    "com.unity.modules.xr": {
      "version": "1.0.0",
      "depth": 0,
      "source": "builtin",
      "dependencies": {
        "com.unity.modules.physics": "1.0.0",
        "com.unity.modules.jsonserialize": "1.0.0",
        "com.unity.modules.subsystems": "1.0.0"
      }
    }
  }
}
